{
  "aergo": "",
  "allium": "",
  "bitcore": "Bitcore",
  "blake2s": "Blake2S",
  "blakecoin": "Blakecoin",
  "c11": "C11",
  "decred": "",
  "equihash": "Equihash",
  "groestl": "Groestl",
  "hmq1725": "HMQ1725",
  "hsr": "HSR",
  "keccak": "Keccak",
  "keccakc": "Keccak-C",
  "lbry": "LBRY",
  "lyra2v2": "Lyra2RE2",
  "lyra2z": "Lyra2Z",
  "m7m": "",
  "myr-gr": "Myriad-Groestl",
  "neoscrypt": "NeoScrypt",
  "nist5": "NIST5",
  "phi": "Phi",
  "phi2": "",
  "polytimos": "Polytimos",
  "quark": "Quark",
  "qubit": "Qubit",
  "scrypt": "",
  "sha256": "",
  "sha256t": "SHA256-3x",
  "sib": "Sib",
  "skein": "Skein",
  "skunk": "Skunk",
  "timetravel": "Timetravel",
  "tribus": "Tribus",
  "x11": "X11",
  "x11evo": "X11evo",
  "x13": "X13",
  "x14": "X14",
  "x16r": "X16r",
  "x16s": "",
  "x17": "X17",
  "xevan": "XEvan",
  "yescrypt": "",
  "yescryptR16": ""
}